Guided tour of species distribution modeling: Blanding's turtle
…
Download the data using rgbif library

gbif_data <- occ_data(scientificName = myspecies, 
                      hasCoordinate = TRUE, 
                      limit = 20200)

See if “Records returned” is smaller than “Records found”, in which case you need to re-run 'occ_data' with a larger 'limit' above

gbif_data  

## Records found [791] 
## Records returned [791] 
## Args [hasCoordinate=TRUE, limit=20200, offset=0, scientificName=Morpho
##      menelaus] 
## # A tibble: 791 x 154
##    key        scientificName decimalLatitude decimalLongitude issues datasetKey
##    <chr>      <chr>                    <dbl>            <dbl> <chr>  <chr>     
##  1 3455887643 Morpho menela~            9.64            -82.6 cdrou~ 50c9509d-~
##  2 3457217712 Morpho menela~            9.63            -82.6 cdrou~ 50c9509d-~
##  3 3466079282 Morpho menela~            9.64            -82.6 cdrou~ 50c9509d-~
##  4 3466349213 Morpho menela~            4.17            -59.1 cdrou~ 50c9509d-~
##  5 3466391924 Morpho menela~           -3.47            -79.8 cdrou~ 50c9509d-~
##  6 3747252595 Morpho menela~           -3.12            -60.0 cdrou~ 50c9509d-~
##  7 3090753318 Morpho menela~          -20.2             -44.3 cdrou~ 50c9509d-~
##  8 3058954340 Morpho menela~            8.64            -83.7 cdrou~ 50c9509d-~
##  9 3090742771 Morpho menela~            8.83            -80.6 cdrou~ 50c9509d-~
## 10 3124556431 Morpho menela~            4.64            -52.3 cdrou~ 50c9509d-~
## # ... with 781 more rows, and 148 more variables: publishingOrgKey <chr>,
## #   installationKey <chr>, publishingCountry <chr>, protocol <chr>,
## #   lastCrawled <chr>, lastParsed <chr>, crawlId <int>,
## #   hostingOrganizationKey <chr>, basisOfRecord <chr>, occurrenceStatus <chr>,
## #   taxonKey <int>, kingdomKey <int>, phylumKey <int>, classKey <int>,
## #   orderKey <int>, familyKey <int>, genusKey <int>, speciesKey <int>,
## #   acceptedTaxonKey <int>, acceptedScientificName <chr>, kingdom <chr>, ...
…
