Guided tour of species distribution modeling: Blanding's turtle
…
Download the data using rgbif library

gbif_data <- occ_data(scientificName = myspecies, 
                      hasCoordinate = TRUE, 
                      limit = 20000)

See if “Records returned” is smaller than “Records found”, in which case you need to re-run 'occ_data' with a larger 'limit' above

gbif_data  

## Records found [3350] 
## Records returned [3350] 
## Args [hasCoordinate=TRUE, limit=20000, offset=0, scientificName=Emydoidea blandingii] 
## # A tibble: 3,350 x 142
##    key   scientificName decimalLatitude decimalLongitude issues datasetKey publishingOrgKey installationKey publishingCount~
##    <chr> <chr>                    <dbl>            <dbl> <chr>  <chr>      <chr>            <chr>           <chr>           
##  1 3747~ Emydoidea bla~            41.6            -83.2 cdrou~ 50c9509d-~ 28eb1a3f-1c15-4~ 997448a8-f762-~ US              
##  2 3059~ Emydoidea bla~            41.8            -83.1 cdrou~ 50c9509d-~ 28eb1a3f-1c15-4~ 997448a8-f762-~ US              
##  3 3067~ Emydoidea bla~            42.8            -84.4 cdrou~ 50c9509d-~ 28eb1a3f-1c15-4~ 997448a8-f762-~ US              
##  4 3068~ Emydoidea bla~            43.1            -80.7 cdrou~ 50c9509d-~ 28eb1a3f-1c15-4~ 997448a8-f762-~ US              
##  5 3068~ Emydoidea bla~            42.5            -71.3 cdrou~ 50c9509d-~ 28eb1a3f-1c15-4~ 997448a8-f762-~ US              
##  6 3068~ Emydoidea bla~            42.6            -84.4 cdrou~ 50c9509d-~ 28eb1a3f-1c15-4~ 997448a8-f762-~ US              
##  7 3068~ Emydoidea bla~            43.4            -89.8 cdrou~ 50c9509d-~ 28eb1a3f-1c15-4~ 997448a8-f762-~ US              
##  8 3070~ Emydoidea bla~            42.8            -84.5 cdrou~ 50c9509d-~ 28eb1a3f-1c15-4~ 997448a8-f762-~ US              
##  9 3070~ Emydoidea bla~            44.4            -65.1 cdrou~ 50c9509d-~ 28eb1a3f-1c15-4~ 997448a8-f762-~ CA              
## 10 3070~ Emydoidea bla~            44.0            -77.3 cdrou~ 50c9509d-~ 28eb1a3f-1c15-4~ 997448a8-f762-~ US              
## # ... with 3,340 more rows, and 133 more variables: protocol <chr>, lastCrawled <chr>, lastParsed <chr>, crawlId <int>,
## #   hostingOrganizationKey <chr>, basisOfRecord <chr>, occurrenceStatus <chr>, taxonKey <int>, kingdomKey <int>,
## #   phylumKey <int>, classKey <int>, orderKey <int>, familyKey <int>, genusKey <int>, speciesKey <int>,
## #   acceptedTaxonKey <int>, acceptedScientificName <chr>, kingdom <chr>, phylum <chr>, order <chr>, family <chr>,
## #   genus <chr>, species <chr>, genericName <chr>, specificEpithet <chr>, taxonRank <chr>, taxonomicStatus <chr>,
## #   iucnRedListCategory <chr>, dateIdentified <chr>, coordinateUncertaintyInMeters <dbl>, stateProvince <chr>, year <int>,
## #   month <int>, day <int>, eventDate <chr>, modified <chr>, lastInterpreted <chr>, references <chr>, license <chr>, ...
…
