Guided tour of species distribution modeling: Blanding's turtle
…
Download the data

gbif_data <- occ_data(scientificName = myspecies, 
                      hasCoordinate = TRUE, 
                      limit = 20000)

See if “Records returned” is smaller than “Records found”, in which case you need to re-run 'occ_data' with a larger 'limit' above

gbif_data  

## Records found [3350] 
## Records returned [3350] 
## Args [hasCoordinate=TRUE, limit=20000, offset=0, scientificName=Emydoidea
##      blandingii] 
## # A tibble: 3,350 x 142
##    key        scientificName    decimalLatitude decimalLongitude issues datasetKey
##    <chr>      <chr>                       <dbl>            <dbl> <chr>  <chr>     
##  1 3747173794 Emydoidea blandi~            41.6            -83.2 cdrou~ 50c9509d-~
##  2 3059016268 Emydoidea blandi~            41.8            -83.1 cdrou~ 50c9509d-~
##  3 3067885721 Emydoidea blandi~            42.8            -84.4 cdrou~ 50c9509d-~
##  4 3068028225 Emydoidea blandi~            43.1            -80.7 cdrou~ 50c9509d-~
##  5 3068070749 Emydoidea blandi~            42.5            -71.3 cdrou~ 50c9509d-~
##  6 3068096788 Emydoidea blandi~            42.6            -84.4 cdrou~ 50c9509d-~
##  7 3068129441 Emydoidea blandi~            43.4            -89.8 cdrou~ 50c9509d-~
##  8 3070362510 Emydoidea blandi~            42.8            -84.5 cdrou~ 50c9509d-~
##  9 3070380118 Emydoidea blandi~            44.4            -65.1 cdrou~ 50c9509d-~
## 10 3070397669 Emydoidea blandi~            44.0            -77.3 cdrou~ 50c9509d-~
## # ... with 3,340 more rows, and 136 more variables: publishingOrgKey <chr>,
## #   installationKey <chr>, publishingCountry <chr>, protocol <chr>,
## #   lastCrawled <chr>, lastParsed <chr>, crawlId <int>,
## #   hostingOrganizationKey <chr>, basisOfRecord <chr>, occurrenceStatus <chr>,
## #   taxonKey <int>, kingdomKey <int>, phylumKey <int>, classKey <int>,
## #   orderKey <int>, familyKey <int>, genusKey <int>, speciesKey <int>,
## #   acceptedTaxonKey <int>, acceptedScientificName <chr>, kingdom <chr>, ...
…
